{
    "Images" : {
        "Property" : {
            "height" : 28,
            "width" : 28,
            "channels" : 1,
            "extension" : ".png"
        },
        "Paths" : {
            "input" : "images",
            "tmp" : "tmp_lnbrnbpnvpenvnrpvbzs",
            "output" : "output",
            "predict": "predict",
            "dataset" : "dataset",
            "datasetTrain" : "train",
            "datasetTest" : "test"
        }
    },
    "Files" : {
        "folder" : "files",
        "gzipFileImages" : "{}_images",
        "gzipFileLabels" : "{}_labels",
        "prdictPrefix" : "predict",
        "labels" : "names.txt"
    },
    "Deeplearning" : {
        "percentage_train_test" : 80,
        "model_dir" : "/tmp/mnist_convnet_model_custom_images"
    },
    "DetectFaces" : {
        "cascadeFolder" : "requirement",
        "cascadeFile" : "haarcascade_frontalface_default.xml"
    }
}
